|   P bin |   P cent |   P low |   P high |   ETA bin |   ETA cent |   ETA low |   ETA high |   nTrk bin |   nTrk cent |   nTrk low |   nTrk high |        eff |         err |
|---------|----------|---------|----------|-----------|------------|-----------|------------|------------|-------------|------------|-------------|------------|-------------|
|       1 |    12500 |   10000 |    15000 |         1 |       2.25 |       1.5 |          3 |          1 |         125 |          0 |         250 | 0.0718163  | 0.000134912 |
|       1 |    12500 |   10000 |    15000 |         1 |       2.25 |       1.5 |          3 |          2 |         625 |        250 |        1000 | 0.0901427  | 0.000349237 |
|       1 |    12500 |   10000 |    15000 |         2 |       4    |       3   |          5 |          1 |         125 |          0 |         250 | 0          | 0           |
|       1 |    12500 |   10000 |    15000 |         2 |       4    |       3   |          5 |          2 |         625 |        250 |        1000 | 0          | 0           |
|       2 |    17500 |   15000 |    20000 |         1 |       2.25 |       1.5 |          3 |          1 |         125 |          0 |         250 | 0.0567688  | 0.000106837 |
|       2 |    17500 |   15000 |    20000 |         1 |       2.25 |       1.5 |          3 |          2 |         625 |        250 |        1000 | 0.0927974  | 0.000318786 |
|       2 |    17500 |   15000 |    20000 |         2 |       4    |       3   |          5 |          1 |         125 |          0 |         250 | 0.0656476  | 0.000289343 |
|       2 |    17500 |   15000 |    20000 |         2 |       4    |       3   |          5 |          2 |         625 |        250 |        1000 | 0.116363   | 0.000847729 |
|       3 |    22500 |   20000 |    25000 |         1 |       2.25 |       1.5 |          3 |          1 |         125 |          0 |         250 | 0.0263259  | 7.9063e-05  |
|       3 |    22500 |   20000 |    25000 |         1 |       2.25 |       1.5 |          3 |          2 |         625 |        250 |        1000 | 0.0565057  | 0.000278197 |
|       3 |    22500 |   20000 |    25000 |         2 |       4    |       3   |          5 |          1 |         125 |          0 |         250 | 0.034511   | 0.000136085 |
|       3 |    22500 |   20000 |    25000 |         2 |       4    |       3   |          5 |          2 |         625 |        250 |        1000 | 0.073787   | 0.00043631  |
|       4 |    27500 |   25000 |    30000 |         1 |       2.25 |       1.5 |          3 |          1 |         125 |          0 |         250 | 0.0116525  | 5.9263e-05  |
|       4 |    27500 |   25000 |    30000 |         1 |       2.25 |       1.5 |          3 |          2 |         625 |        250 |        1000 | 0.0289536  | 0.000230083 |
|       4 |    27500 |   25000 |    30000 |         2 |       4    |       3   |          5 |          1 |         125 |          0 |         250 | 0.0187803  | 8.96295e-05 |
|       4 |    27500 |   25000 |    30000 |         2 |       4    |       3   |          5 |          2 |         625 |        250 |        1000 | 0.0450122  | 0.000304164 |
|       5 |    32500 |   30000 |    35000 |         1 |       2.25 |       1.5 |          3 |          1 |         125 |          0 |         250 | 0.00744673 | 5.39613e-05 |
|       5 |    32500 |   30000 |    35000 |         1 |       2.25 |       1.5 |          3 |          2 |         625 |        250 |        1000 | 0.0183091  | 0.00021283  |
|       5 |    32500 |   30000 |    35000 |         2 |       4    |       3   |          5 |          1 |         125 |          0 |         250 | 0.0122132  | 7.13657e-05 |
|       5 |    32500 |   30000 |    35000 |         2 |       4    |       3   |          5 |          2 |         625 |        250 |        1000 | 0.0308408  | 0.000249395 |
|       6 |    37500 |   35000 |    40000 |         1 |       2.25 |       1.5 |          3 |          1 |         125 |          0 |         250 | 0.00635416 | 5.71614e-05 |
|       6 |    37500 |   35000 |    40000 |         1 |       2.25 |       1.5 |          3 |          2 |         625 |        250 |        1000 | 0.014531   | 0.000221901 |
|       6 |    37500 |   35000 |    40000 |         2 |       4    |       3   |          5 |          1 |         125 |          0 |         250 | 0.0104562  | 6.67311e-05 |
|       6 |    37500 |   35000 |    40000 |         2 |       4    |       3   |          5 |          2 |         625 |        250 |        1000 | 0.0275075  | 0.000240242 |
|       7 |    70000 |   40000 |   100000 |         1 |       2.25 |       1.5 |          3 |          1 |         125 |          0 |         250 | 0.0425214  | 8.39999e-05 |
|       7 |    70000 |   40000 |   100000 |         1 |       2.25 |       1.5 |          3 |          2 |         625 |        250 |        1000 | 0.0551362  | 0.00025456  |
|       7 |    70000 |   40000 |   100000 |         2 |       4    |       3   |          5 |          1 |         125 |          0 |         250 | 0.0262983  | 3.83647e-05 |
|       7 |    70000 |   40000 |   100000 |         2 |       4    |       3   |          5 |          2 |         625 |        250 |        1000 | 0.0451253  | 0.000122494 |
