{
    "channels": [
        {
            "name": "singlechannel",
            "samples": [
                {
                    "name": "signal_DstMuNu_2017",
                    "data": [
                        0.0018820371877476506,
                        0.0030708754834640572,
                        0.004267575026191097,
                        0.00523808245558023,
                        0.0066247736642255466,
                        0.009087810756235232,
                        0.0119194754963966,
                        0.014439423049417796,
                        0.017016546502500635,
                        0.02114166421113702,
                        0.023021382460329448,
                        0.025563715523788524,
                        0.026445160925889714,
                        0.030427048200240617,
                        0.0339766180713865,
                        0.03568129211802138,
                        0.039424297128035295,
                        0.040626978303782174,
                        0.04029349286041846,
                        0.03522685199755378,
                        0.02718161046594395,
                        0.021769849878529854,
                        0.01556006142217147,
                        0.010396690896598447,
                        0.006571713889595584,
                        0.004921366285622007,
                        0.003300076081828258,
                        0.0021471490103703913,
                        0.0013092662722121893,
                        0.0010646291039387498
                    ],
                    "modifiers": [
                        {
                            "name": "dst_intgr_2017",
                            "type": "normfactor",
                            "data": null
                        },
                        {
                            "name": "dst_sig_y",
                            "type": "normfactor",
                            "data": null
                        },
                        {
                            "name": "sig_lumi_factor_2017",
                            "type": "normfactor",
                            "data": null
                        },
                        {
                            "name": "beeston_barlow_2017",
                            "type": "staterror",
                            "data": [
                                0.00016570413476909473,
                                0.00021292690415759474,
                                0.00025781363582661507,
                                0.0002870451503731163,
                                0.00032558986271228674,
                                0.0003830055589084661,
                                0.00044390446440847366,
                                0.000493817848843402,
                                0.0005362368924625582,
                                0.0005925499542194405,
                                0.0006066666955040999,
                                0.0006212916215596287,
                                0.0005943107953017716,
                                0.0006226480914641286,
                                0.0006601447430336409,
                                0.000650149284933642,
                                0.0007029972633786293,
                                0.0007133030802166813,
                                0.0007178120001528962,
                                0.0006853421270131283,
                                0.0005868965223805902,
                                0.0005538487659019247,
                                0.00046724593735089734,
                                0.00038427275291526703,
                                0.0003041026517445719,
                                0.00026768703640509017,
                                0.00022299847600534744,
                                0.0001841165086843301,
                                0.00014458427247871752,
                                0.00012816628289760446
                            ]
                        }
                    ]
                }
            ]
        }
    ]
}