{
    "channels": [
        {
            "name": "singlechannel_2018",
            "samples": [
                {
                    "name": "signal_Bc2JpsiMuNu_2018",
                    "data": [
                        0.0005138241882767622,
                        0.000771070396323463,
                        0.001448910334607061,
                        0.0020772115360453034,
                        0.0032532888440656737,
                        0.004679045366650834,
                        0.006594225187755464,
                        0.008561434839480447,
                        0.0111941791834353,
                        0.014375342597368498,
                        0.018832654621763242,
                        0.023779831991110396,
                        0.02991456535916049,
                        0.03580842124457315,
                        0.04250864883999414,
                        0.05211881902283979,
                        0.061737973596627166,
                        0.0712761799733352,
                        0.08259240141202448,
                        0.08316489248703582,
                        0.08255579787795429,
                        0.07033050685580822,
                        0.053916679993235475,
                        0.03920032976423519,
                        0.027589658954829413,
                        0.018812219012921048,
                        0.013915590356140106,
                        0.008639855286655906,
                        0.005551852834820666,
                        0.003829368374206767
                    ],
                    "modifiers": [
                        {
                            "name": "beeston_barlow_2018",
                            "type": "staterror",
                            "data": [
                                9.541475640560252e-05,
                                0.00011624323597979821,
                                0.0001580890781795393,
                                0.00018962260250032803,
                                0.00023918655280517448,
                                0.00028475763276718805,
                                0.00033961987577012183,
                                0.00038835457079285,
                                0.00044179901195447516,
                                0.0004998796406426666,
                                0.0005787134310039657,
                                0.0006462483536976292,
                                0.0007223549197613938,
                                0.0007969241986038293,
                                0.0008575801551504735,
                                0.000948556075027297,
                                0.0010401501812756047,
                                0.0011180663223085332,
                                0.0012037099944964636,
                                0.0012087205439099684,
                                0.001205483187349377,
                                0.001124173482179911,
                                0.0009801412791680592,
                                0.0008256819003365533,
                                0.0006895260306439051,
                                0.0005566817376959278,
                                0.00048156886196498515,
                                0.00036283981669965387,
                                0.0002942476117508603,
                                0.00023348071050113576
                            ]
                        },
                        {
                            "name": "sig_lumi_factor_2018",
                            "type": "normfactor",
                            "data": null
                        },
                        {
                            "name": "jpsimunu_sig_y",
                            "type": "normfactor",
                            "data": null
                        }
                    ]
                },
                {
                    "name": "Bc2JpsiTauNu_2018",
                    "data": [
                        0.014808542597696714,
                        0.019306895334457338,
                        0.025824488714965944,
                        0.030668833019769158,
                        0.037776497242079744,
                        0.04207549392952598,
                        0.04917305996504512,
                        0.05064947342622531,
                        0.05437826948093353,
                        0.056551483612797014,
                        0.05791721636386232,
                        0.055985069882978036,
                        0.053705693175844546,
                        0.04998266630949706,
                        0.04845888360939998,
                        0.04033477700966587,
                        0.03646508118505308,
                        0.032193959353286145,
                        0.027718845889086935,
                        0.023783636019996134,
                        0.018541931903628593,
                        0.0151423457502298,
                        0.0110150799905886,
                        0.0078684195802375,
                        0.0063087202746905146,
                        0.004466054155864403,
                        0.0033958428007166046,
                        0.0022892492070705783,
                        0.0021813400684429934,
                        0.0014503649244568852
                    ],
                    "modifiers": [
                        {
                            "name": "jpsitaunu_intgr_2018",
                            "type": "normfactor",
                            "data": null
                        },
                        {
                            "name": "beeston_barlow_2018",
                            "type": "staterror",
                            "data": [
                                0.0006731155726225779,
                                0.0007643673059839721,
                                0.0008770456183100023,
                                0.0009574664621361315,
                                0.0010710543171970981,
                                0.0011221129192580598,
                                0.0012187090448800462,
                                0.00124127444881042,
                                0.0012795772487920612,
                                0.0013028774090036092,
                                0.0013336345444950979,
                                0.0013030358854815237,
                                0.0012718756556352588,
                                0.0012372553559442878,
                                0.0012032281386158447,
                                0.0010965558647591431,
                                0.0010504700176360545,
                                0.0009874332771395158,
                                0.0009163567786716227,
                                0.000849415572142719,
                                0.0007507408785673862,
                                0.0006854617846654075,
                                0.0005821650671077042,
                                0.0004861125850913727,
                                0.0004332846873630087,
                                0.00035642992471174973,
                                0.0003126126688712461,
                                0.00024543327702678495,
                                0.00024237111871588818,
                                0.00018882143003982676
                            ]
                        },
                        {
                            "name": "jpsimunu_sig_y",
                            "type": "normfactor",
                            "data": null
                        },
                        {
                            "name": "r_jpsi_2018",
                            "type": "normfactor",
                            "data": null
                        },
                        {
                            "name": "sig_lumi_factor_2018",
                            "type": "normfactor",
                            "data": null
                        }
                    ]
                },
                {
                    "name": "Bc2ccX_2018",
                    "data": [
                        0.002111794549369572,
                        0.002511415431768946,
                        0.00482152343331236,
                        0.006410557777079895,
                        0.009706358516441456,
                        0.014556971448332493,
                        0.019581919393254814,
                        0.025770615025928027,
                        0.032707286337093036,
                        0.03985748416481079,
                        0.049759765375669625,
                        0.05552149296214368,
                        0.06031563905512071,
                        0.06706592206020584,
                        0.06804891452420994,
                        0.07169848967381674,
                        0.06693767362764122,
                        0.06310965373353287,
                        0.05349286843060864,
                        0.04556630364030679,
                        0.034942042087725514,
                        0.028046033131578538,
                        0.019542924031832446,
                        0.013819097066504901,
                        0.009218328533577182,
                        0.006334306075406228,
                        0.003759829196907986,
                        0.002378328971324297,
                        0.0020800397420003437,
                        0.001373534620808529
                    ],
                    "modifiers": [
                        {
                            "name": "beeston_barlow_2018",
                            "type": "staterror",
                            "data": [
                                0.00023041567558764817,
                                0.00024989517546773787,
                                0.00034351932107108343,
                                0.0003968035647727936,
                                0.0004921319123475823,
                                0.0005982878410847154,
                                0.0006971347907735496,
                                0.0008025931534384364,
                                0.0008995572030312528,
                                0.0009914919763048115,
                                0.0011205335611140824,
                                0.0011762605791512558,
                                0.0012218057622771002,
                                0.0012991320384021223,
                                0.0012924822544385988,
                                0.0013252525426676537,
                                0.0012901288494746891,
                                0.0012532022695390902,
                                0.0011539252558177887,
                                0.0010657508903616703,
                                0.0009341990584533577,
                                0.0008456197159574752,
                                0.000702910121351616,
                                0.0005839634341131489,
                                0.00047476807391942975,
                                0.0003847816913856032,
                                0.0002981738506637255,
                                0.000226764769907667,
                                0.00021453971829618135,
                                0.00016656553888341958
                            ]
                        },
                        {
                            "name": "bc2ccx_y_2018",
                            "type": "normfactor",
                            "data": null
                        }
                    ]
                },
                {
                    "name": "combinatorial_2018",
                    "data": [
                        0.0025349694034143013,
                        0.0022051883535670865,
                        0.002659908220917697,
                        0.004835587137944155,
                        0.007446524378652015,
                        0.01209187310537303,
                        0.007062045374442629,
                        0.014210986151326276,
                        0.010565556940562309,
                        0.013646982002988552,
                        0.015718531067712052,
                        0.018344335049414802,
                        0.01815486817548641,
                        0.02723101837178113,
                        0.026930879265468968,
                        0.029686649517741127,
                        0.030606747754053164,
                        0.032947593792840964,
                        0.03959702250136571,
                        0.044493202962519005,
                        0.04382635454460007,
                        0.053837592208165586,
                        0.040435360689917814,
                        0.051424880459748266,
                        0.05086050324327578,
                        0.051629395101291595,
                        0.04984900475713756,
                        0.052738059786592704,
                        0.04653604716282535,
                        0.050039816146390595
                    ],
                    "modifiers": [
                        {
                            "name": "beeston_barlow_2018",
                            "type": "staterror",
                            "data": [
                                0.0008602558436722296,
                                0.0007873181274157177,
                                0.0010094690627838682,
                                0.0015080160287570443,
                                0.0026600102140057857,
                                0.00233208089205891,
                                0.001277823080400399,
                                0.0024567540398921176,
                                0.0023384401532906764,
                                0.001958624570692584,
                                0.0023139696338323698,
                                0.0024033390153062693,
                                0.0025157409939744546,
                                0.0034735969965819058,
                                0.0035485153657010874,
                                0.0038288010862862704,
                                0.003461003612069967,
                                0.004059359125137169,
                                0.003619590445762453,
                                0.004853026878004558,
                                0.0044547907110284455,
                                0.004817218832901272,
                                0.003552146335434038,
                                0.0039050835992094244,
                                0.004525110388597813,
                                0.0042824429744675345,
                                0.003913479112666418,
                                0.00442579586804993,
                                0.003690153729902784,
                                0.004148121646978064
                            ]
                        },
                        {
                            "name": "comb_y_2018",
                            "type": "normfactor",
                            "data": null
                        }
                    ]
                },
                {
                    "name": "misid_2018",
                    "data": [
                        0.051131575121383374,
                        0.058122691369871644,
                        0.059209634932323715,
                        0.06426607741112131,
                        0.06982403554432158,
                        0.07327362602889215,
                        0.07310902579590518,
                        0.06961554077053851,
                        0.07179432963508967,
                        0.06039806374041798,
                        0.05969335829660483,
                        0.05192755043695251,
                        0.03173290243632862,
                        0.024531445046155377,
                        0.013657777702323508,
                        0.009434694016804234,
                        0.009036312412184208,
                        0.006474559490883814,
                        0.005168950472398439,
                        0.0032278158696727637,
                        0.0029490392063557095,
                        0.002749344972636896,
                        0.002280078739482712,
                        0.001686870268749643,
                        0.0014771027677289552,
                        0.0010760684096033774,
                        0.0007793890956092113,
                        0.0012043191828163694,
                        0.0006740054781650067,
                        0.0002741310906002514
                    ],
                    "modifiers": [
                        {
                            "name": "beeston_barlow_2018",
                            "type": "staterror",
                            "data": [
                                0.0012042909423727512,
                                0.0013095821041768801,
                                0.0013257206414314616,
                                0.001407493459581938,
                                0.0015162168850571041,
                                0.001547469775944044,
                                0.0015862803808445749,
                                0.001545237019516076,
                                0.0015754843332576656,
                                0.0014613550884952971,
                                0.0015050546679568997,
                                0.0013899362649949726,
                                0.0010590869692124211,
                                0.0009707763943581296,
                                0.0007067376477085873,
                                0.0005849779941456983,
                                0.0005897792684711182,
                                0.0004924815845595106,
                                0.00045349040920952924,
                                0.0003702775094159571,
                                0.0003096348682058412,
                                0.0003427912251271954,
                                0.00033803892097711074,
                                0.00022570608801267183,
                                0.0002530279695976196,
                                0.00022813712753284472,
                                0.00018300969856377178,
                                0.00018873943173767255,
                                0.00016388751651142883,
                                0.00012110495603573403
                            ]
                        },
                        {
                            "name": "misid_y_constr_2018",
                            "type": "normfactor",
                            "data": null
                        }
                    ]
                }
            ]
        }
    ],
    "observations": [
        {
            "name": "singlechannel_2018",
            "data": [
                1006.597814090461,
                1112.7369074580151,
                1311.1707596756128,
                1369.081327888564,
                1632.8093315175663,
                1691.2366801107241,
                1814.9988672495585,
                1876.6863405905299,
                1824.007258569202,
                1892.9052494994621,
                1996.7930007070177,
                1921.2429268704414,
                1675.5043678503641,
                1585.6383767103812,
                1563.1073252577912,
                1587.4549353297916,
                1707.8433930902356,
                1888.6641074053914,
                2018.1303504412633,
                2006.1644216128332,
                1924.573248734678,
                1721.8640514005135,
                1315.9388685215818,
                928.6447071011532,
                700.1193436394465,
                495.20215334183706,
                382.626076017049,
                266.5490636382041,
                216.34647029287663,
                144.79789146185013
            ]
        }
    ],
    "measurements": [
        {
            "name": "sig_y_extraction",
            "config": {
                "poi": "jpsimunu_sig_y",
                "parameters": [
                    {
                        "name": "jpsimunu_sig_y",
                        "bounds": [
                            [
                                0,
                                415794.3561607439
                            ]
                        ],
                        "inits": [
                            10000.0
                        ]
                    },
                    {
                        "name": "sig_lumi_factor_2018",
                        "inits": [
                            1.0
                        ],
                        "fixed": true
                    },
                    {
                        "name": "jpsitaunu_intgr_2018",
                        "inits": [
                            0.9990079323324396
                        ],
                        "fixed": true
                    },
                    {
                        "name": "comb_y_2018",
                        "bounds": [
                            [
                                1e-06,
                                41579.43561607439
                            ]
                        ],
                        "inits": [
                            1000.0
                        ]
                    },
                    {
                        "name": "misid_y_constr_2018",
                        "inits": [
                            16000
                        ],
                        "bounds": [
                            [
                                1e-06,
                                41579.43561607439
                            ]
                        ],
                        "fixed": false
                    },
                    {
                        "name": "bc2ccx_y_2018",
                        "bounds": [
                            [
                                1e-06,
                                41579.43561607439
                            ]
                        ],
                        "inits": [
                            1000.0
                        ]
                    },
                    {
                        "name": "r_jpsi_2018",
                        "inits": [
                            0.0461296028727761
                        ],
                        "fixed": true
                    }
                ]
            }
        }
    ],
    "version": "1.0.0"
}