{
    "channels": [
        {
            "name": "singlechannel",
            "samples": [
                {
                    "name": "combinatorial_2017",
                    "data": [
                        0.0027880050422534022,
                        0.0036925921724937287,
                        0.004727540034502489,
                        0.006043686189078973,
                        0.007525611849406244,
                        0.008706796493165058,
                        0.009883901379003331,
                        0.011099589218167652,
                        0.012741694269774253,
                        0.01403276963723461,
                        0.014370506814495759,
                        0.017010474991900507,
                        0.016246830735802912,
                        0.017596336107999527,
                        0.01814731177489983,
                        0.018480363927864875,
                        0.01957353870804804,
                        0.020527828251353335,
                        0.02187275969783322,
                        0.022710602381616544,
                        0.02378381846227801,
                        0.026735184321101658,
                        0.027895892074163244,
                        0.028271152178018576,
                        0.027902537396666025,
                        0.029405406697877876,
                        0.0303836523001696,
                        0.030082847366721753,
                        0.027778447090592975,
                        0.025589667000329202
                    ],
                    "modifiers": [
                        {
                            "name": "comb_y_2017",
                            "type": "normfactor",
                            "data": null
                        },
                        {
                            "name": "beeston_barlow_2017",
                            "type": "staterror",
                            "data": [
                                0.0001372474471355946,
                                0.00016177332353524746,
                                0.00019134417655568002,
                                0.0002257722080882233,
                                0.00024920375723221777,
                                0.00025799434738763813,
                                0.00028088780535427124,
                                0.000290924085356992,
                                0.00031196454452019046,
                                0.0003289134051681877,
                                0.0003271882228569997,
                                0.0003651329968389727,
                                0.00033068532443255623,
                                0.0003514614350324641,
                                0.00035033086579053685,
                                0.0003406501040590155,
                                0.0003523801383713106,
                                0.0003583593451343796,
                                0.0003756947518485895,
                                0.00038697312803764763,
                                0.0003939607669653424,
                                0.0004259604295467419,
                                0.00043871668889351734,
                                0.00045040455738641226,
                                0.0004344909149209656,
                                0.00046606390996684196,
                                0.00047844366519465977,
                                0.0004799028374565307,
                                0.00045367583931859304,
                                0.0004263772473902062
                            ]
                        }
                    ]
                }
            ]
        }
    ]
}