{
    "channels": [
        {
            "name": "singlechannel",
            "samples": [
                {
                    "name": "bu_2017",
                    "data": [
                        0.014435574609798284,
                        0.018981460049171638,
                        0.026752702139079425,
                        0.03359732822588359,
                        0.04153377560066575,
                        0.05037311055083625,
                        0.05645466984755096,
                        0.061819445845186574,
                        0.06163450415950735,
                        0.05514604806904266,
                        0.045553574043022925,
                        0.0347209342292989,
                        0.02239464838148917,
                        0.015152081235728174,
                        0.010107241702004572,
                        0.006288216054175668,
                        0.004307018939387539,
                        0.0028212871611517807,
                        0.001980273388866464,
                        0.0013890233767726598,
                        0.0009306733208840634,
                        0.0007566151761559919,
                        0.000565091600396211,
                        0.00045233521037221596,
                        0.00033336300195128287,
                        0.0002933898935519335,
                        0.000265762638526747,
                        0.00022144785972064648,
                        0.00018705600428965506,
                        0.00015865222921480372
                    ],
                    "modifiers": [
                        {
                            "name": "bu_y_constr_2017",
                            "type": "normsys",
                            "data": {
                                "lo": 12623.936879959927,
                                "hi": 13878.150851403456
                            }
                        },
                        {
                            "name": "beeston_barlow_2017",
                            "type": "staterror",
                            "data": [
                                4.6601104228377756e-05,
                                5.366728602734046e-05,
                                6.692232523011036e-05,
                                7.522838336790156e-05,
                                8.417855288907571e-05,
                                9.387220672400762e-05,
                                9.867310482910867e-05,
                                0.00010414923272103554,
                                0.00010389121815630846,
                                9.712739842161442e-05,
                                8.774687828563753e-05,
                                7.639404156118933e-05,
                                5.842054238481136e-05,
                                4.79740737118218e-05,
                                3.920156114283397e-05,
                                2.99938243684229e-05,
                                2.52621380793897e-05,
                                2.019260556678246e-05,
                                1.7301235058600337e-05,
                                1.4597388701243687e-05,
                                1.1766877268017174e-05,
                                1.1329314226451021e-05,
                                9.912413428182316e-06,
                                9.019667190751827e-06,
                                7.620717641801488e-06,
                                7.35844857092991e-06,
                                7.333978894687766e-06,
                                6.7971905005188845e-06,
                                6.359658195490716e-06,
                                5.552550895894497e-06
                            ]
                        }
                    ]
                }
            ]
        }
    ]
}