{
    "channels": [
        {
            "name": "singlechannel",
            "samples": [
                {
                    "name": "signal_DstMuNu_2018",
                    "data": [
                        0.0022825387085020315,
                        0.003089212057438047,
                        0.003973679004317274,
                        0.0051065138351539495,
                        0.0073636280172356796,
                        0.008597740512035778,
                        0.010978178153194861,
                        0.014265612937871028,
                        0.01740340649482886,
                        0.02026377772571722,
                        0.02275167755491732,
                        0.025335522475668094,
                        0.025493773761534392,
                        0.0288307071473631,
                        0.032330498635423914,
                        0.03554875618671351,
                        0.04014726769435234,
                        0.04094126854944898,
                        0.03753845968364495,
                        0.03485761097324792,
                        0.029964381824457573,
                        0.01917860821612892,
                        0.015022010757966414,
                        0.010356100176409973,
                        0.007374216700257105,
                        0.005269506278798787,
                        0.003075042153415711,
                        0.0018468553000634332,
                        0.0016289625100889137,
                        0.0008607775617397058
                    ],
                    "modifiers": [
                        {
                            "name": "dst_intgr_2018",
                            "type": "normfactor",
                            "data": null
                        },
                        {
                            "name": "dst_sig_y",
                            "type": "normfactor",
                            "data": null
                        },
                        {
                            "name": "sig_lumi_factor_2018",
                            "type": "normfactor",
                            "data": null
                        },
                        {
                            "name": "beeston_barlow_2018",
                            "type": "staterror",
                            "data": [
                                0.00019430259823219938,
                                0.00022590555898854814,
                                0.0002608848076932377,
                                0.00029681008777464573,
                                0.0003623404468978803,
                                0.0003953245299223836,
                                0.0004508197434505254,
                                0.0005188353263709155,
                                0.0005740854084318603,
                                0.0006200615286894864,
                                0.0006399409285701914,
                                0.0006394109047935005,
                                0.0006037518240645744,
                                0.0006466169796866001,
                                0.0006653718287431671,
                                0.0006933126379969132,
                                0.0007573608191838754,
                                0.0007700135910942036,
                                0.0007271564178825498,
                                0.0007254135311315032,
                                0.0006907096329784353,
                                0.0005262814346188965,
                                0.0004949920838731991,
                                0.0004090413640954787,
                                0.00034608913808869434,
                                0.00030222691252153924,
                                0.00022983944171543847,
                                0.00018286592375912566,
                                0.0001707616698914683,
                                0.00012424253924570223
                            ]
                        }
                    ]
                }
            ]
        }
    ]
}