{
    "channels": [
        {
            "name": "singlechannel",
            "samples": [
                {
                    "name": "combinatorial_2016",
                    "data": [
                        0.003180543855439295,
                        0.004010578764470997,
                        0.004871592371048885,
                        0.00542145195550586,
                        0.007299417857023926,
                        0.008795935567312122,
                        0.010531379985851377,
                        0.011775270326106273,
                        0.013263254012230889,
                        0.014104683191474102,
                        0.015035158229151867,
                        0.016899604324459493,
                        0.017164692769632294,
                        0.017715273811216372,
                        0.018175880800070286,
                        0.01944316928370627,
                        0.01976902901355524,
                        0.020628365319898687,
                        0.021910121148270695,
                        0.02551010842402686,
                        0.02473850840621174,
                        0.025592579226019877,
                        0.028151688547808876,
                        0.02768065706772655,
                        0.0295473804835841,
                        0.028006294837620786,
                        0.02848484149815855,
                        0.027899504651641885,
                        0.025575139033715923,
                        0.025997360591182222
                    ],
                    "modifiers": [
                        {
                            "name": "comb_y_2016",
                            "type": "normfactor",
                            "data": null
                        },
                        {
                            "name": "beeston_barlow_2016",
                            "type": "staterror",
                            "data": [
                                0.0001588021895468969,
                                0.00018223838385024422,
                                0.00019822744230168365,
                                0.00021358900917542372,
                                0.00026630666693304195,
                                0.00029225131392129997,
                                0.0003211240691229102,
                                0.00032480708039624563,
                                0.00043436929373202475,
                                0.0003463540982579952,
                                0.0003681391307878144,
                                0.0003814961078756504,
                                0.0003865550454612129,
                                0.0003703132110401595,
                                0.00037311373766342877,
                                0.0003648711919126275,
                                0.0003900272515872969,
                                0.00037883881433632916,
                                0.00039592496348884375,
                                0.00046516481375512286,
                                0.00042729234418647957,
                                0.00042976344829816855,
                                0.0004721131948164514,
                                0.00046730423623296926,
                                0.00048785438186836226,
                                0.000462103516311743,
                                0.000475505612968506,
                                0.00048186074077165476,
                                0.0004539957899658652,
                                0.0004587234376251284
                            ]
                        }
                    ]
                }
            ]
        }
    ]
}