{
    "channels": [
        {
            "name": "singlechannel",
            "samples": [
                {
                    "name": "misid_2018",
                    "data": [
                        0.20085794073701796,
                        0.24693844695691775,
                        0.232498538426799,
                        0.26497451039410536,
                        0.25929877217463293,
                        0.2290149263309906,
                        0.20362925405806148,
                        0.15267950807659383,
                        0.13569322485939048,
                        0.10760338481443506,
                        0.07863383388559474,
                        0.07133398650157345,
                        0.04926130090244758,
                        0.041637307531740574,
                        0.03375436168450172,
                        0.027528508625555007,
                        0.023184326391560168,
                        0.02119245171553724,
                        0.016262046249447406,
                        0.014936739251457384,
                        0.01399629469714545,
                        0.01631013818179648,
                        0.008964423603233717,
                        0.009440192321114156,
                        0.009453562332698428,
                        0.00932842024394686,
                        0.00800824285899121,
                        0.007720631704349897,
                        0.008113385813064289,
                        0.005507808018916831
                    ],
                    "modifiers": [
                        {
                            "name": "misid_y_constr_2018",
                            "type": "normfactor",
                            "data": null
                        },
                        {
                            "name": "beeston_barlow_2018",
                            "type": "staterror",
                            "data": [
                                0.004928586463705854,
                                0.00561381232820477,
                                0.0052255772539692566,
                                0.005646212837219966,
                                0.0055766873956144295,
                                0.005128776754846928,
                                0.004687843891711533,
                                0.0038692463979467123,
                                0.0036643421438004834,
                                0.0032388595178140687,
                                0.0027576650036231637,
                                0.002796751958077027,
                                0.0022954747836307072,
                                0.0021548216045188307,
                                0.001901176245869505,
                                0.0016590054308129433,
                                0.0014430634370322683,
                                0.0014005750431254297,
                                0.0011067481041092393,
                                0.000989119037728017,
                                0.0010198579701603866,
                                0.0012429583999988012,
                                0.0007217559770329512,
                                0.0007289321982109853,
                                0.000827946708780139,
                                0.0007856669398783385,
                                0.0006993561225906992,
                                0.0006542799204428256,
                                0.0006936218019181381,
                                0.0005725293109331891
                            ]
                        }
                    ]
                }
            ]
        }
    ]
}