|   P bin |   P cent |   P low |   P high |   ETA bin |   ETA cent |   ETA low |   ETA high |   nTrk bin |   nTrk cent |   nTrk low |   nTrk high |        eff |         err |
|---------|----------|---------|----------|-----------|------------|-----------|------------|------------|-------------|------------|-------------|------------|-------------|
|       1 |    12500 |   10000 |    15000 |         1 |       2.25 |       1.5 |          3 |          1 |         125 |          0 |         250 | 0.00770687 | 4.94076e-05 |
|       1 |    12500 |   10000 |    15000 |         1 |       2.25 |       1.5 |          3 |          2 |         625 |        250 |        1000 | 0.00707939 | 0.000111692 |
|       1 |    12500 |   10000 |    15000 |         2 |       4    |       3   |          5 |          1 |         125 |          0 |         250 | 0          | 0           |
|       1 |    12500 |   10000 |    15000 |         2 |       4    |       3   |          5 |          2 |         625 |        250 |        1000 | 0          | 0           |
|       2 |    17500 |   15000 |    20000 |         1 |       2.25 |       1.5 |          3 |          1 |         125 |          0 |         250 | 0.00739222 | 4.87525e-05 |
|       2 |    17500 |   15000 |    20000 |         1 |       2.25 |       1.5 |          3 |          2 |         625 |        250 |        1000 | 0.00697067 | 0.000110145 |
|       2 |    17500 |   15000 |    20000 |         2 |       4    |       3   |          5 |          1 |         125 |          0 |         250 | 0.00488869 | 9.96476e-05 |
|       2 |    17500 |   15000 |    20000 |         2 |       4    |       3   |          5 |          2 |         625 |        250 |        1000 | 0.00397118 | 0.000205421 |
|       3 |    22500 |   20000 |    25000 |         1 |       2.25 |       1.5 |          3 |          1 |         125 |          0 |         250 | 0.0075598  | 5.62392e-05 |
|       3 |    22500 |   20000 |    25000 |         1 |       2.25 |       1.5 |          3 |          2 |         625 |        250 |        1000 | 0.00795266 | 0.0001374   |
|       3 |    22500 |   20000 |    25000 |         2 |       4    |       3   |          5 |          1 |         125 |          0 |         250 | 0.00637504 | 7.3394e-05  |
|       3 |    22500 |   20000 |    25000 |         2 |       4    |       3   |          5 |          2 |         625 |        250 |        1000 | 0.00508141 | 0.000150093 |
|       4 |    27500 |   25000 |    30000 |         1 |       2.25 |       1.5 |          3 |          1 |         125 |          0 |         250 | 0.00657672 | 5.91706e-05 |
|       4 |    27500 |   25000 |    30000 |         1 |       2.25 |       1.5 |          3 |          2 |         625 |        250 |        1000 | 0.00816428 | 0.000164955 |
|       4 |    27500 |   25000 |    30000 |         2 |       4    |       3   |          5 |          1 |         125 |          0 |         250 | 0.00660464 | 6.89291e-05 |
|       4 |    27500 |   25000 |    30000 |         2 |       4    |       3   |          5 |          2 |         625 |        250 |        1000 | 0.00555982 | 0.000142192 |
|       5 |    32500 |   30000 |    35000 |         1 |       2.25 |       1.5 |          3 |          1 |         125 |          0 |         250 | 0.00515582 | 6.11669e-05 |
|       5 |    32500 |   30000 |    35000 |         1 |       2.25 |       1.5 |          3 |          2 |         625 |        250 |        1000 | 0.00752916 | 0.000191978 |
|       5 |    32500 |   30000 |    35000 |         2 |       4    |       3   |          5 |          1 |         125 |          0 |         250 | 0.00676999 | 6.87394e-05 |
|       5 |    32500 |   30000 |    35000 |         2 |       4    |       3   |          5 |          2 |         625 |        250 |        1000 | 0.00555526 | 0.000145988 |
|       6 |    37500 |   35000 |    40000 |         1 |       2.25 |       1.5 |          3 |          1 |         125 |          0 |         250 | 0.00397719 | 6.2027e-05  |
|       6 |    37500 |   35000 |    40000 |         1 |       2.25 |       1.5 |          3 |          2 |         625 |        250 |        1000 | 0.00711945 | 0.000215953 |
|       6 |    37500 |   35000 |    40000 |         2 |       4    |       3   |          5 |          1 |         125 |          0 |         250 | 0.00599275 | 6.81682e-05 |
|       6 |    37500 |   35000 |    40000 |         2 |       4    |       3   |          5 |          2 |         625 |        250 |        1000 | 0.0050275  | 0.000151108 |
|       7 |    70000 |   40000 |   100000 |         1 |       2.25 |       1.5 |          3 |          1 |         125 |          0 |         250 | 0.0021065  | 2.9441e-05  |
|       7 |    70000 |   40000 |   100000 |         1 |       2.25 |       1.5 |          3 |          2 |         625 |        250 |        1000 | 0.00441121 | 0.000117547 |
|       7 |    70000 |   40000 |   100000 |         2 |       4    |       3   |          5 |          1 |         125 |          0 |         250 | 0.00301642 | 2.05647e-05 |
|       7 |    70000 |   40000 |   100000 |         2 |       4    |       3   |          5 |          2 |         625 |        250 |        1000 | 0.00356791 | 5.71732e-05 |
