{
  "name": "nominal_d0",
  "axes":
    [
      {
        "observable": "B_plus_MCORR",
        "title": "$m_{\\mathrm{corr}} (B^{+}) \\mathrm{[MeV]}$",
        "bins": 20,
        "range": [4000,8000],
        "extra_bins": [-2,3]
      },
      {
        "observable": "B_plus_FIT_LTIME",
        "title": "$\\tau (B^{+}) \\mathrm{[ns]}$",
        "bins": 6,
        "range": [0,0.006],
        "extra_bins": [0,2]
      }
    ]
}

